{
  "success": true,
  "data": {
    "items": [
      {
        "id": 36,
        "user_id": 2,
        "action": "login",
        "token_jti": "cb71c0e3-26c2-4c95-8759-39efee632f99",
        "refresh_jti": "6673cfec-bcd1-40d5-a88d-d72cd036acbd",
        "ip_address": "3.112.217.127",
        "user_agent": "node",
        "success": 1,
        "error_message": null,
        "metadata": "{\"method\":\"password\"}",
        "created_at": "2026-03-12 14:15:35",
        "user_email": "test-user@example.com",
        "user_full_name": "Test Regular User"
      },
      {
        "id": 31,
        "user_id": 2,
        "action": "login",
        "token_jti": "4f2faf0b-40eb-46b8-9c39-e9dfd2d5c6a4",
        "refresh_jti": "c919dc48-65c5-47ef-8e36-32bf4e24399f",
        "ip_address": "215.42.173.77",
        "user_agent": "node",
        "success": 1,
        "error_message": null,
        "metadata": "{\"method\":\"password\"}",
        "created_at": "2026-03-12 13:58:33",
        "user_email": "test-user@example.com",
        "user_full_name": "Test Regular User"
      },
      {
        "id": 28,
        "user_id": 2,
        "action": "login",
        "token_jti": "c7a9a363-b7b2-4237-9a62-15a9b9cce907",
        "refresh_jti": "d8ac1606-c468-4610-baa5-12c9e37f4090",
        "ip_address": "234.51.190.85",
        "user_agent": "node",
        "success": 1,
        "error_message": null,
        "metadata": "{\"method\":\"password\"}",
        "created_at": "2026-03-12 13:57:29",
        "user_email": "test-user@example.com",
        "user_full_name": "Test Regular User"
      },
      {
        "id": 25,
        "user_id": 2,
        "action": "login",
        "token_jti": "2fa00065-762b-4e4a-97d2-d71f17a906b9",
        "refresh_jti": "5d6eb0ed-84f0-473b-b94b-8f4557c2fade",
        "ip_address": "248.142.119.44",
        "user_agent": "node",
        "success": 1,
        "error_message": null,
        "metadata": "{\"method\":\"password\"}",
        "created_at": "2026-03-12 13:55:41",
        "user_email": "test-user@example.com",
        "user_full_name": "Test Regular User"
      },
      {
        "id": 22,
        "user_id": 2,
        "action": "login",
        "token_jti": "8c9677f0-2132-4041-813f-a11a878cb69b",
        "refresh_jti": "2154db35-6c3f-43f3-b99a-c24ca47dc532",
        "ip_address": "39.163.56.43",
        "user_agent": "node",
        "success": 1,
        "error_message": null,
        "metadata": "{\"method\":\"password\"}",
        "created_at": "2026-03-12 13:54:24",
        "user_email": "test-user@example.com",
        "user_full_name": "Test Regular User"
      },
      {
        "id": 19,
        "user_id": 2,
        "action": "login",
        "token_jti": "f30cf902-42d1-486f-b5c4-f2e43fb6eb5b",
        "refresh_jti": "6765e630-5be7-4454-b682-aac1c29aefc4",
        "ip_address": "185.99.49.164",
        "user_agent": "node",
        "success": 1,
        "error_message": null,
        "metadata": "{\"method\":\"password\"}",
        "created_at": "2026-03-12 13:53:59",
        "user_email": "test-user@example.com",
        "user_full_name": "Test Regular User"
      },
      {
        "id": 16,
        "user_id": 2,
        "action": "login",
        "token_jti": "6070be0f-cf62-40c0-a6c7-35ddefc05d3a",
        "refresh_jti": "5058ec1b-45a6-431e-b280-c4077717df4b",
        "ip_address": "44.3.178.49",
        "user_agent": "node",
        "success": 1,
        "error_message": null,
        "metadata": "{\"method\":\"password\"}",
        "created_at": "2026-03-12 13:52:18",
        "user_email": "test-user@example.com",
        "user_full_name": "Test Regular User"
      },
      {
        "id": 13,
        "user_id": 2,
        "action": "login",
        "token_jti": "5830ae61-bf73-4472-b6d1-203b166c0bbe",
        "refresh_jti": "aa0c8d3e-d559-4a0a-aef5-9f3b284559a4",
        "ip_address": "245.242.125.119",
        "user_agent": "node",
        "success": 1,
        "error_message": null,
        "metadata": "{\"method\":\"password\"}",
        "created_at": "2026-03-12 13:49:30",
        "user_email": "test-user@example.com",
        "user_full_name": "Test Regular User"
      },
      {
        "id": 10,
        "user_id": 2,
        "action": "login",
        "token_jti": "e5f9c8a9-833b-4d41-89c4-74df76723fe5",
        "refresh_jti": "c04285e1-53f2-4cb0-bb43-ee4fd10f7c46",
        "ip_address": "178.101.182.53",
        "user_agent": "node",
        "success": 1,
        "error_message": null,
        "metadata": "{\"method\":\"password\"}",
        "created_at": "2026-03-12 13:49:17",
        "user_email": "test-user@example.com",
        "user_full_name": "Test Regular User"
      },
      {
        "id": 9,
        "user_id": 2,
        "action": "login",
        "token_jti": "4d970514-eace-4dd5-843f-f8a43b8f0fac",
        "refresh_jti": "65ca1af7-cdbe-407c-aac3-41ab04590dff",
        "ip_address": "178.101.182.53",
        "user_agent": "node",
        "success": 1,
        "error_message": null,
        "metadata": "{\"method\":\"password\"}",
        "created_at": "2026-03-12 13:49:15",
        "user_email": "test-user@example.com",
        "user_full_name": "Test Regular User"
      }
    ],
    "total": 14,
    "page": 1,
    "limit": 10,
    "totalPages": 2
  },
  "message": "Token audit logs retrieved successfully"
}
